%YAML 1.1
%TAG !u! tag:unity3d.com,2011:
--- !u!114 &11400000
MonoBehaviour:
  m_ObjectHideFlags: 0
  m_PrefabParentObject: {fileID: 0}
  m_PrefabInternal: {fileID: 0}
  m_GameObject: {fileID: 0}
  m_Enabled: 1
  m_EditorHideFlags: 0
  m_Script: {fileID: 11500000, guid: 1cb5f906fb6f3cd4faaa0999296714f9, type: 3}
  m_Name: State03Lose
  m_EditorClassIdentifier: 
  StateText: You are awakened by noise. Bear is nearby. You don't have a weapon and
    die. Press R to retry.
  ChapterText: WASTED
  ChapterLevel: 3
  NextStates:
  - {fileID: 11400000, guid: 320206b5c8d4b5a49b34ecba9992fdf7, type: 2}
  NextStateKeys: 5200
  NextStateKeyCodes: 
